<?xml version="1.0" encoding="UTF-8"?>
<svg width="12px" height="18px" viewBox="0 0 12 18" version="1.1" xmlns="http://www.w3.org/2000/svg" xmlns:xlink="http://www.w3.org/1999/xlink">
    <title>ArrowDown</title>
    <g id="Page-1" stroke="none" stroke-width="1" fill="none" fill-rule="evenodd" stroke-linejoin="round">
        <g id="specs-2-collections" transform="translate(-934.000000, -487.000000)" fill="#00ADBB" stroke="#00ADBB">
            <g id="pages" transform="translate(898.000000, 480.000000)">
                <polygon id="ArrowDown" transform="translate(42.000000, 16.000000) rotate(90.000000) translate(-42.000000, -16.000000) " points="49.90875 11 51 12.078125 42 21 33 12.078125 34.085625 11 42 18.8385417"></polygon>
            </g>
        </g>
    </g>
</svg>