<?xml version="1.0" encoding="UTF-8"?>
<svg width="31px" height="31px" viewBox="0 0 31 31" version="1.1" xmlns="http://www.w3.org/2000/svg" xmlns:xlink="http://www.w3.org/1999/xlink">
    <title>noun_Information_55404</title>
    <g id="Page-1" stroke="none" stroke-width="1" fill="none" fill-rule="evenodd">
        <g id="specs-" transform="translate(-546.000000, -1134.000000)" fill="#FFFFFF" fill-rule="nonzero">
            <g id="Group" transform="translate(0.000000, 1083.000000)">
                <g id="noun_Information_55404" transform="translate(546.674451, 51.795556)">
                    <g id="Group" transform="translate(11.818182, 6.363636)">
                        <path d="M3.14936364,3.72121212 C3.71731818,3.72121212 4.17740909,3.56228956 4.51659091,3.24915825 C4.86945455,2.92390572 5.04859091,2.48383838 5.04859091,1.94074074 C5.04859091,1.3983165 4.86977273,0.957912458 4.51690909,0.632659933 C4.17709091,0.318855219 3.71668182,0.16026936 3.14936364,0.16026936 C2.61322727,0.16026936 2.16236364,0.317508418 1.80918182,0.627609428 C1.43818182,0.953198653 1.25045455,1.39461279 1.25045455,1.94074074 C1.25045455,2.48720539 1.4385,2.92929293 1.80918182,3.25387205 C2.16172727,3.56397306 2.61290909,3.72121212 3.14936364,3.72121212 Z" id="Path"></path>
                        <polygon id="Path" points="4.63686364 16.2023569 4.63686364 5.31649832 0.124090909 5.31649832 0.124090909 7.13569024 1.72645455 7.13569024 1.72645455 16.2023569 0.124090909 16.2023569 0.124090909 18.0215488 6.23954545 18.0215488 6.23954545 16.2023569"></polygon>
                    </g>
                    <path d="M15,1.66666667 C22.352,1.66666667 28.3333333,7.648 28.3333333,15 C28.3333333,22.352 22.352,28.3333333 15,28.3333333 C7.648,28.3333333 1.66666667,22.352 1.66666667,15 C1.66666667,7.648 7.648,1.66666667 15,1.66666667 M15,0 C6.71566667,0 0,6.71566667 0,15 C0,23.2843333 6.71566667,30 15,30 C23.2843333,30 30,23.2843333 30,15 C30,6.71566667 23.2843333,0 15,0 L15,0 Z" id="Shape"></path>
                </g>
            </g>
        </g>
    </g>
</svg>