<?xml version="1.0" encoding="UTF-8"?>
<svg width="26px" height="28px" viewBox="0 0 26 28" version="1.1" xmlns="http://www.w3.org/2000/svg" xmlns:xlink="http://www.w3.org/1999/xlink">
    <title>Lien 2</title>
    <g id="Page-1" stroke="none" stroke-width="1" fill="none" fill-rule="evenodd">
        <g id="specs-" transform="translate(-276.000000, -1139.000000)">
            <g id="Group" transform="translate(0.000000, 1083.000000)">
                <g id="Group-15" transform="translate(48.674451, 56.559102)">
                    <g id="Lien-2" transform="translate(228.000000, 0.000000)">
                        <g id="Glyphs/Search" fill="#FDFDFD">
                            <path d="M24.5412404,23.8915907 L17.6965976,16.6057709 C18.9235096,14.8252218 19.5807615,12.6725806 19.5715976,10.4647434 C19.5481874,4.70155592 15.1673511,0.0333926723 9.75106188,0.000105867791 C7.15906216,-0.0123724469 4.67002863,1.0786933 2.83844757,3.03024451 C1.0068665,4.98179573 -0.0151159439,7.63172054 0.00016901825,10.3896907 C0.0235792159,16.1534029 4.40481521,20.8219915 9.82159759,20.8552783 C11.9050087,20.8648863 13.9354842,20.1573814 15.6099904,18.8383536 L15.6171333,18.8326534 L22.4555262,26.112773 C22.8252563,26.5254939 23.3761793,26.6925536 23.8948385,26.5492243 C24.4134976,26.405895 24.8183964,25.9746979 24.9526555,25.4227017 C25.0869146,24.8707055 24.929438,24.2846448 24.5412404,23.8915907 L24.5412404,23.8915907 Z M9.81445473,18.769001 C5.48126556,18.742478 1.97633375,15.0080069 1.95731188,10.3972909 C1.9456165,8.1912006 2.76326972,6.0716865 4.2282587,4.51056084 C5.69324768,2.94943519 7.68398039,2.07626921 9.75731188,2.0854331 C14.090501,2.11195616 17.5954329,5.84642726 17.6144547,10.4571432 C17.6261501,12.6632335 16.8084969,14.7827476 15.3435079,16.3438733 C13.8785189,17.9049989 11.8877862,18.7781649 9.81445473,18.769001 Z" id="Search"></path>
                        </g>
                        <polygon id="+" fill="#FFFFFF" fill-rule="nonzero" points="10.265625 14.3349369 10.265625 11.1630619 13.3828125 11.1630619 13.3828125 9.77243688 10.265625 9.77243688 10.265625 6.58493688 8.859375 6.58493688 8.859375 9.77243688 5.75 9.77243688 5.75 11.1630619 8.859375 11.1630619 8.859375 14.3349369"></polygon>
                    </g>
                </g>
            </g>
        </g>
    </g>
</svg>